Probability of Technical Success - EPO IV/SC QW/TIW
…
sim <- function(i, mod, data) {

 mod <- param(mod, slice(post,i))
 
 out <- mrgsim(mod, data = data, obsonly = TRUE,
               end = -1, add = 672)

  mutate(out, irep = i, qw = as.integer(ID >= 1000))
}

Test it out

sim(2, mod, data)

. # A tibble: 500 x 9
.       ID  time RETdv  EPOi  RETi  RBCi  HGBi  irep    qw
.    <dbl> <dbl> <dbl> <dbl> <dbl> <dbl> <dbl> <dbl> <int>
.  1     1   672 125.   6.74 106.   2.92  8.56     2     0
.  2     2   672  80.6  8.39 113.   2.72  8.72     2     0
.  3     3   672  81.3  6.96  76.4  2.68  8.05     2     0
.  4     4   672  84.3 11.0   92.7  3.02  9.63     2     0
.  5     5   672 149.   8.98 129.   3.29  9.69     2     0
.  6     6   672 124.   9.13 119.   2.98  9.17     2     0
.  7     7   672 106.   6.28 125.   3.04  9.27     2     0
.  8     8   672 122.   7.36 151.   3.09  9.04     2     0
.  9     9   672  71.1  9.20 104.   2.70  9.02     2     0
. 10    10   672 103.   8.16 101.   2.85  8.18     2     0
. # ... with 490 more rows
…
Summarize

Our target is HGB > 8.5

sum1 <- 
out %>% 
  group_by(irep,qw) %>%
  summarise(success = mean(HGBi > 8.5)) 

sum1

. # A tibble: 202 x 3
. # Groups:   irep [?]
.     irep    qw success
.    <int> <int>   <dbl>
.  1     1     0   0.268
.  2     1     1   0.192
.  3     2     0   0.748
.  4     2     1   0.536
.  5     3     0   0.036
.  6     3     1   0.024
.  7     4     0   0.352
.  8     4     1   0.18 
.  9     5     0   0.576
. 10     5     1   0.4  
. # ... with 192 more rows
…
