Probability of Technical Success - EPO IV/SC QW/TIW
…
sim <- function(i, mod, data) {
  
  mod <- param(mod, slice(post,i))
  
  out <- mrgsim(mod, data = data, obsonly = TRUE,
                end = -1, add = 672)
  
  mutate(out, irep = i, qw = as.integer(ID >= 1000))
}

Test it out

sim(2, mod, data)

. # A tibble: 500 x 9
.       ID  time RETdv  EPOi  RETi  RBCi  HGBi  irep    qw
.    <dbl> <dbl> <dbl> <dbl> <dbl> <dbl> <dbl> <dbl> <int>
.  1     1   672  42.4  8.95 117.   3.08  9.13     2     0
.  2     2   672 201.  10.0  124.   2.97  8.49     2     0
.  3     3   672 106.  13.7   92.7  2.44  7.02     2     0
.  4     4   672  87.3 14.4   99.8  2.71  8.45     2     0
.  5     5   672 166.   7.75 136.   2.82  8.46     2     0
.  6     6   672 132.   8.61 110.   3.02  9.09     2     0
.  7     7   672 209.   6.56 156.   3.33  9.45     2     0
.  8     8   672  73.6  7.28  91.9  3.05  9.10     2     0
.  9     9   672 100.  12.1   96.3  2.89  8.57     2     0
. 10    10   672 108.   7.30 106.   2.83  8.39     2     0
. # ... with 490 more rows
…
Summarize

Our target is HGB > 8.5

sum1 <- 
  out %>% 
  group_by(irep,qw) %>%
  summarise(success = mean(HGBi > 8.5)) 

sum1

. # A tibble: 202 x 3
. # Groups:   irep [?]
.     irep    qw success
.    <int> <int>   <dbl>
.  1     1     0   0.288
.  2     1     1   0.148
.  3     2     0   0.752
.  4     2     1   0.596
.  5     3     0   0.02 
.  6     3     1   0.028
.  7     4     0   0.352
.  8     4     1   0.2  
.  9     5     0   0.652
. 10     5     1   0.428
. # ... with 192 more rows
…
